module nosql-elastic

go 1.17

require (
	github.com/brianvoe/gofakeit/v6 v6.7.1
	github.com/olivere/elastic/v7 v7.0.27
)

require (
	github.com/josharian/intern v1.0.0 // indirect
	github.com/mailru/easyjson v0.7.7 // indirect
	github.com/pkg/errors v0.9.1 // indirect
)
